\relax 
\citation{chengmo}
\@writefile{toc}{\contentsline {chapter}{\numberline {2}Thermal Aware Techniques}{3}}
\@writefile{lof}{\addvspace {10\p@ }}
\@writefile{lot}{\addvspace {10\p@ }}
\newlabel{chap:thermal}{{2}{3}}
\@writefile{toc}{\contentsline {section}{\numberline {2.1}Complete utilisation of Register File}{3}}
\newlabel{sec:complete_util}{{2.1}{3}}
\citation{tiantian}
\@writefile{toc}{\contentsline {section}{\numberline {2.2}Minimizing Bit switching between subsequent Register accesses}{4}}
\newlabel{sec:minimise_bit}{{2.2}{4}}
\@writefile{lof}{\contentsline {figure}{\numberline {2.1}{\ignorespaces System diagram for thermal techniques\relax }}{5}}
\providecommand*\caption@xref[2]{\@setref\relax\@undefined{#1}}
\newlabel{fig:System Diagram}{{2.1}{5}}
\@setckpt{chap_thermal}{
\setcounter{page}{6}
\setcounter{equation}{0}
\setcounter{enumi}{0}
\setcounter{enumii}{0}
\setcounter{enumiii}{0}
\setcounter{enumiv}{0}
\setcounter{footnote}{0}
\setcounter{mpfootnote}{0}
\setcounter{part}{0}
\setcounter{chapter}{2}
\setcounter{section}{2}
\setcounter{subsection}{0}
\setcounter{subsubsection}{0}
\setcounter{paragraph}{0}
\setcounter{subparagraph}{0}
\setcounter{figure}{1}
\setcounter{table}{0}
\setcounter{@course}{0}
\setcounter{@credits}{0}
\setcounter{ContinuedFloat}{0}
\setcounter{KVtest}{0}
\setcounter{subfigure}{0}
\setcounter{subfigure@save}{0}
\setcounter{lofdepth}{1}
\setcounter{subtable}{0}
\setcounter{subtable@save}{0}
\setcounter{lotdepth}{1}
\setcounter{parentequation}{0}
\setcounter{float@type}{4}
\setcounter{@todonotes@numberoftodonotes}{0}
}
