\relax 
\@writefile{toc}{\contentsline {chapter}{\numberline {3}The Computation box}{13}}
\@writefile{lof}{\addvspace {10\p@ }}
\@writefile{lot}{\addvspace {10\p@ }}
\newlabel{chap:computing}{{3}{13}}
\@writefile{toc}{\contentsline {section}{\numberline {3.1}Architecture}{13}}
\@writefile{lof}{\contentsline {figure}{\numberline {3.1}{\ignorespaces Distributed Computing Architecture\relax }}{14}}
\newlabel{fig:comp_arch}{{3.1}{14}}
\@writefile{toc}{\contentsline {section}{\numberline {3.2}Workload Redistribution}{14}}
\newlabel{sec:workload}{{3.2}{14}}
\@writefile{lot}{\contentsline {table}{\numberline {3.1}{\ignorespaces Sensor Stress Levels\relax }}{14}}
\newlabel{table:sensor_stress}{{3.1}{14}}
\@writefile{lof}{\contentsline {figure}{\numberline {3.2}{\ignorespaces Workload Redistribution Algorithm\relax }}{16}}
\newlabel{fig:algo_redist}{{3.2}{16}}
\@setckpt{chap_computing}{
\setcounter{page}{17}
\setcounter{equation}{0}
\setcounter{enumi}{0}
\setcounter{enumii}{0}
\setcounter{enumiii}{0}
\setcounter{enumiv}{0}
\setcounter{footnote}{0}
\setcounter{mpfootnote}{0}
\setcounter{part}{0}
\setcounter{chapter}{3}
\setcounter{section}{2}
\setcounter{subsection}{0}
\setcounter{subsubsection}{0}
\setcounter{paragraph}{0}
\setcounter{subparagraph}{0}
\setcounter{figure}{2}
\setcounter{table}{1}
\setcounter{@course}{0}
\setcounter{@credits}{0}
\setcounter{ContinuedFloat}{0}
\setcounter{KVtest}{0}
\setcounter{subfigure}{0}
\setcounter{subfigure@save}{3}
\setcounter{lofdepth}{1}
\setcounter{subtable}{0}
\setcounter{subtable@save}{0}
\setcounter{lotdepth}{1}
\setcounter{parentequation}{0}
\setcounter{float@type}{4}
\setcounter{@todonotes@numberoftodonotes}{0}
}
