\relax 
\@writefile{toc}{\contentsline {chapter}{\numberline {4}MATLAB Simulation}{17}}
\@writefile{lof}{\addvspace {10\p@ }}
\@writefile{lot}{\addvspace {10\p@ }}
\newlabel{chap:simulation}{{4}{17}}
\@writefile{toc}{\contentsline {section}{\numberline {4.1}Master}{17}}
\@writefile{lof}{\contentsline {figure}{\numberline {4.1}{\ignorespaces Master GUI\relax }}{17}}
\@writefile{lot}{\contentsline {table}{\numberline {4.1}{\ignorespaces Sensor Stress Levels\relax }}{18}}
\newlabel{table:sensor_stress}{{4.1}{18}}
\@writefile{toc}{\contentsline {section}{\numberline {4.2}Signal Processing Slaves}{19}}
\@writefile{lof}{\contentsline {figure}{\numberline {4.2}{\ignorespaces Signal Processing Slave GUI\relax }}{19}}
\@writefile{toc}{\contentsline {section}{\numberline {4.3}Data Accumulation and Array Reconfiguration Slave}{20}}
\@writefile{lof}{\contentsline {figure}{\numberline {4.3}{\ignorespaces Data Accumulation and Array Reconfiguration Slave GUI\relax }}{20}}
\@setckpt{chap_simulation}{
\setcounter{page}{21}
\setcounter{equation}{0}
\setcounter{enumi}{0}
\setcounter{enumii}{0}
\setcounter{enumiii}{0}
\setcounter{enumiv}{0}
\setcounter{footnote}{0}
\setcounter{mpfootnote}{0}
\setcounter{part}{0}
\setcounter{chapter}{4}
\setcounter{section}{3}
\setcounter{subsection}{0}
\setcounter{subsubsection}{0}
\setcounter{paragraph}{0}
\setcounter{subparagraph}{0}
\setcounter{figure}{3}
\setcounter{table}{1}
\setcounter{@course}{0}
\setcounter{@credits}{0}
\setcounter{ContinuedFloat}{0}
\setcounter{KVtest}{0}
\setcounter{subfigure}{0}
\setcounter{subfigure@save}{3}
\setcounter{lofdepth}{1}
\setcounter{subtable}{0}
\setcounter{subtable@save}{0}
\setcounter{lotdepth}{1}
\setcounter{parentequation}{0}
\setcounter{float@type}{4}
\setcounter{@todonotes@numberoftodonotes}{0}
}
