\relax 
\@writefile{toc}{\contentsline {chapter}{\numberline {4}Results}{39}}
\@writefile{lof}{\addvspace {10\p@ }}
\@writefile{lot}{\addvspace {10\p@ }}
\newlabel{chap:results}{{4}{39}}
\@writefile{lof}{\contentsline {figure}{\numberline {4.1}{\ignorespaces Xilinx ISE Simulation output\relax }}{40}}
\newlabel{fig:output}{{4.1}{40}}
\@writefile{lot}{\contentsline {table}{\numberline {4.1}{\ignorespaces Comparison of Techniques\relax }}{42}}
\newlabel{table:comparison}{{4.1}{42}}
\@setckpt{chap_results}{
\setcounter{page}{44}
\setcounter{equation}{0}
\setcounter{enumi}{0}
\setcounter{enumii}{0}
\setcounter{enumiii}{0}
\setcounter{enumiv}{0}
\setcounter{footnote}{0}
\setcounter{mpfootnote}{0}
\setcounter{part}{0}
\setcounter{chapter}{4}
\setcounter{section}{0}
\setcounter{subsection}{0}
\setcounter{subsubsection}{0}
\setcounter{paragraph}{0}
\setcounter{subparagraph}{0}
\setcounter{figure}{1}
\setcounter{table}{1}
\setcounter{@course}{0}
\setcounter{@credits}{0}
\setcounter{ContinuedFloat}{0}
\setcounter{KVtest}{0}
\setcounter{subfigure}{0}
\setcounter{subfigure@save}{0}
\setcounter{lofdepth}{1}
\setcounter{subtable}{0}
\setcounter{subtable@save}{0}
\setcounter{lotdepth}{1}
\setcounter{parentequation}{0}
\setcounter{float@type}{4}
\setcounter{@todonotes@numberoftodonotes}{0}
}
