\relax 
\@writefile{toc}{\contentsline {chapter}{\numberline {3}Superscalar ARM Processor Architecture}{6}}
\@writefile{lof}{\addvspace {10\p@ }}
\@writefile{lot}{\addvspace {10\p@ }}
\newlabel{chap:architecture}{{3}{6}}
\citation{arm_ref}
\@writefile{lof}{\contentsline {figure}{\numberline {3.1}{\ignorespaces Superscalar Processor Architecture\relax }}{7}}
\newlabel{fig:Superscalar Architecture}{{3.1}{7}}
\@writefile{toc}{\contentsline {section}{\numberline {3.1}Instruction Memory}{7}}
\newlabel{sec:instr_mem}{{3.1}{7}}
\citation{arm_ref}
\@writefile{toc}{\contentsline {section}{\numberline {3.2}Fetch Unit}{8}}
\newlabel{sec:fetch}{{3.2}{8}}
\@writefile{lof}{\contentsline {figure}{\numberline {3.2}{\ignorespaces Fetch Unit Architecture\relax }}{8}}
\newlabel{fig:fetch_unit}{{3.2}{8}}
\citation{arm_ref}
\citation{arm_ref}
\citation{arm_ref}
\citation{arm_ref}
\@writefile{toc}{\contentsline {section}{\numberline {3.3}Decoder}{9}}
\newlabel{sec:decoder}{{3.3}{9}}
\@writefile{toc}{\contentsline {subsection}{\numberline {3.3.1}Data processing instructions}{9}}
\newlabel{subsec:data_proc}{{3.3.1}{9}}
\@writefile{lof}{\contentsline {figure}{\numberline {3.3}{\ignorespaces Data Processing Instructions Encoding. \cite  {arm_ref}\relax }}{9}}
\newlabel{fig:data_proc}{{3.3}{9}}
\citation{arm_ref}
\citation{arm_ref}
\citation{arm_ref}
\citation{arm_ref}
\@writefile{toc}{\contentsline {subsection}{\numberline {3.3.2}Shifter Operand Encoding for Data Processing Instructions}{10}}
\newlabel{subsec:shifter_operand}{{3.3.2}{10}}
\@writefile{lof}{\contentsline {figure}{\numberline {3.4}{\ignorespaces Second operand encoding for immediate rotate.\cite  {arm_ref}\relax }}{10}}
\newlabel{fig:32_immediate}{{3.4}{10}}
\@writefile{lof}{\contentsline {figure}{\numberline {3.5}{\ignorespaces Second operand encoding for immediate shift of register operand.\cite  {arm_ref}\relax }}{10}}
\newlabel{fig:immediate_shift}{{3.5}{10}}
\@writefile{lof}{\contentsline {figure}{\numberline {3.6}{\ignorespaces Second operand encoding for register shift of register operand.\cite  {arm_ref}\relax }}{10}}
\newlabel{fig:register_shift}{{3.6}{10}}
\citation{arm_ref}
\citation{arm_ref}
\citation{arm_ref}
\citation{arm_ref}
\@writefile{toc}{\contentsline {subsection}{\numberline {3.3.3}Load Store instructions}{11}}
\newlabel{subsec:load_store}{{3.3.3}{11}}
\@writefile{lof}{\contentsline {figure}{\numberline {3.7}{\ignorespaces Load Store Instruction Encoding.\cite  {arm_ref}\relax }}{11}}
\newlabel{fig:load_store}{{3.7}{11}}
\@writefile{toc}{\contentsline {subsection}{\numberline {3.3.4}Offset encoding for Load Store Instructions}{11}}
\newlabel{subsec:offset_operand}{{3.3.4}{11}}
\citation{arm_ref}
\citation{arm_ref}
\citation{arm_ref}
\citation{arm_ref}
\citation{arm_ref}
\@writefile{lof}{\contentsline {figure}{\numberline {3.8}{\ignorespaces Immediate Offset encoding.\cite  {arm_ref}\relax }}{12}}
\newlabel{fig:immediate_offset}{{3.8}{12}}
\@writefile{lof}{\contentsline {figure}{\numberline {3.9}{\ignorespaces Register Offset encoding.\cite  {arm_ref}\relax }}{12}}
\newlabel{fig:register_offset}{{3.9}{12}}
\@writefile{toc}{\contentsline {subsection}{\numberline {3.3.5}Load Store multiple instructions}{12}}
\newlabel{subsec:load_store_multiple}{{3.3.5}{12}}
\@writefile{lof}{\contentsline {figure}{\numberline {3.10}{\ignorespaces Load Store Multiple encoding.\cite  {arm_ref}\relax }}{12}}
\newlabel{fig:load_store_multiple}{{3.10}{12}}
\citation{arm_ref}
\citation{arm_ref}
\citation{arm_ref}
\@writefile{toc}{\contentsline {subsection}{\numberline {3.3.6}Branch instructions}{13}}
\newlabel{subsec:branch}{{3.3.6}{13}}
\@writefile{lof}{\contentsline {figure}{\numberline {3.11}{\ignorespaces Branch encoding.\cite  {arm_ref}\relax }}{13}}
\newlabel{fig:branch}{{3.11}{13}}
\@writefile{toc}{\contentsline {section}{\numberline {3.4}Tag Register file}{14}}
\newlabel{sec:tag_register_file}{{3.4}{14}}
\@writefile{lof}{\contentsline {figure}{\numberline {3.12}{\ignorespaces Tag Register File fields.\relax }}{14}}
\newlabel{fig:tag_register_file}{{3.12}{14}}
\@writefile{toc}{\contentsline {section}{\numberline {3.5}Reservation Station}{15}}
\newlabel{sec:reservation_station}{{3.5}{15}}
\@writefile{lof}{\contentsline {figure}{\numberline {3.13}{\ignorespaces Reservation Station Fields\relax }}{15}}
\newlabel{fig:reservation_station_field}{{3.13}{15}}
\@writefile{lof}{\contentsline {figure}{\numberline {3.14}{\ignorespaces Reservation Station Block Diagram\relax }}{18}}
\newlabel{fig:reservation_station_block_diagram}{{3.14}{18}}
\citation{bench_mark}
\citation{register}
\@writefile{toc}{\contentsline {section}{\numberline {3.6}Execution Unit}{19}}
\newlabel{sec:execution_unit}{{3.6}{19}}
\@writefile{toc}{\contentsline {subsection}{\numberline {3.6.1}ALU Pipe}{20}}
\newlabel{subsec:alu}{{3.6.1}{20}}
\@writefile{lof}{\contentsline {figure}{\numberline {3.15}{\ignorespaces ALU Stages Block Diagram\relax }}{21}}
\newlabel{fig:alu_stages}{{3.15}{21}}
\@writefile{lof}{\contentsline {figure}{\numberline {3.16}{\ignorespaces Barrel Shifter Diagram\relax }}{22}}
\newlabel{fig:barrel_shifter}{{3.16}{22}}
\@writefile{lof}{\contentsline {figure}{\numberline {3.17}{\ignorespaces ALU Stage Units\relax }}{23}}
\newlabel{fig:alu_stage_units}{{3.17}{23}}
\@writefile{lof}{\contentsline {figure}{\numberline {3.18}{\ignorespaces ALU Design\relax }}{24}}
\newlabel{fig:the_ALU}{{3.18}{24}}
\@writefile{lof}{\contentsline {figure}{\numberline {3.19}{\ignorespaces Register Issue Unit\relax }}{25}}
\newlabel{fig:register_issue_alu}{{3.19}{25}}
\@writefile{toc}{\contentsline {subsection}{\numberline {3.6.2}Load Store Pipe}{26}}
\newlabel{subsec:load_store_pipe}{{3.6.2}{26}}
\@writefile{lof}{\contentsline {figure}{\numberline {3.20}{\ignorespaces Load Store Pipe Stages\relax }}{27}}
\newlabel{fig:load_store_pipe_stages}{{3.20}{27}}
\@writefile{lof}{\contentsline {figure}{\numberline {3.21}{\ignorespaces Load Store Pipe Memory Stage\relax }}{28}}
\newlabel{fig:load_store_memory_stage}{{3.21}{28}}
\citation{arm_ref}
\@writefile{lof}{\contentsline {figure}{\numberline {3.22}{\ignorespaces Load Store Multiple Unit\relax }}{29}}
\newlabel{fig:load_store_multiple_design}{{3.22}{29}}
\@writefile{lof}{\contentsline {figure}{\numberline {3.23}{\ignorespaces Register Issue Unit for Load Store Pipe\relax }}{30}}
\newlabel{fig:register_issue_load_store}{{3.23}{30}}
\@writefile{toc}{\contentsline {subsection}{\numberline {3.6.3}Branch Pipe}{31}}
\newlabel{subsec:branch_pipe}{{3.6.3}{31}}
\citation{bench_mark}
\@writefile{lof}{\contentsline {figure}{\numberline {3.24}{\ignorespaces Branch Pipe Stages\relax }}{32}}
\newlabel{fig:branch_stages}{{3.24}{32}}
\@writefile{lof}{\contentsline {figure}{\numberline {3.25}{\ignorespaces Physical Address Encoding\relax }}{33}}
\newlabel{fig:physical_address_encoding}{{3.25}{33}}
\@writefile{toc}{\contentsline {section}{\numberline {3.7}Reorder Buffer}{34}}
\newlabel{sec:reorder_buffer}{{3.7}{34}}
\@writefile{lof}{\contentsline {figure}{\numberline {3.26}{\ignorespaces Reorder Buffer\relax }}{35}}
\newlabel{fig:reorder_buffer}{{3.26}{35}}
\citation{arm_ref}
\@writefile{toc}{\contentsline {section}{\numberline {3.8}Register Address Table}{37}}
\newlabel{sec:register_address_table}{{3.8}{37}}
\@writefile{lof}{\contentsline {figure}{\numberline {3.27}{\ignorespaces Register Address Table\relax }}{37}}
\newlabel{fig:register_address_table}{{3.27}{37}}
\@writefile{toc}{\contentsline {section}{\numberline {3.9}Design}{38}}
\newlabel{sec:design}{{3.9}{38}}
\@setckpt{chap_architecture}{
\setcounter{page}{39}
\setcounter{equation}{0}
\setcounter{enumi}{0}
\setcounter{enumii}{0}
\setcounter{enumiii}{0}
\setcounter{enumiv}{0}
\setcounter{footnote}{0}
\setcounter{mpfootnote}{0}
\setcounter{part}{0}
\setcounter{chapter}{3}
\setcounter{section}{9}
\setcounter{subsection}{0}
\setcounter{subsubsection}{0}
\setcounter{paragraph}{0}
\setcounter{subparagraph}{0}
\setcounter{figure}{27}
\setcounter{table}{0}
\setcounter{@course}{0}
\setcounter{@credits}{0}
\setcounter{ContinuedFloat}{0}
\setcounter{KVtest}{0}
\setcounter{subfigure}{0}
\setcounter{subfigure@save}{0}
\setcounter{lofdepth}{1}
\setcounter{subtable}{0}
\setcounter{subtable@save}{0}
\setcounter{lotdepth}{1}
\setcounter{parentequation}{0}
\setcounter{float@type}{4}
\setcounter{@todonotes@numberoftodonotes}{0}
}
