\relax 
\citation{curroutrel}
\@writefile{toc}{\contentsline {chapter}{\numberline {2}The Proposed System Arcitecture}{4}}
\@writefile{lof}{\addvspace {10\p@ }}
\@writefile{lot}{\addvspace {10\p@ }}
\newlabel{chap:system}{{2}{4}}
\@writefile{lof}{\contentsline {figure}{\numberline {2.1}{\ignorespaces System Block Diagram\relax }}{4}}
\providecommand*\caption@xref[2]{\@setref\relax\@undefined{#1}}
\newlabel{fig:block_diagram}{{2.1}{4}}
\@writefile{toc}{\contentsline {section}{\numberline {2.1}Solar Photo Voltaic Array}{4}}
\newlabel{sec:spv}{{2.1}{4}}
\@writefile{lof}{\contentsline {figure}{\numberline {2.2}{\ignorespaces SPV module array structure\relax }}{5}}
\newlabel{fig:module_arrangement}{{2.2}{5}}
\@writefile{lof}{\contentsline {figure}{\numberline {2.3}{\ignorespaces Number of Switches v/s Array Size\relax }}{7}}
\newlabel{fig:noswitch}{{2.3}{7}}
\@writefile{toc}{\contentsline {section}{\numberline {2.2}Sensor Network}{7}}
\citation{kalman}
\newlabel{fig:sensorplacement_1}{{2.4a}{8}}
\newlabel{sub@fig:sensorplacement_1}{{(a)}{a}}
\newlabel{fig:sensorplacement_2}{{2.4b}{8}}
\newlabel{sub@fig:sensorplacement_2}{{(b)}{b}}
\@writefile{lof}{\contentsline {figure}{\numberline {2.4}{\ignorespaces Sensor Placement for a \(4 \times 4\) array\relax }}{8}}
\newlabel{fig:noswitch}{{2.4}{8}}
\@writefile{lof}{\contentsline {subfigure}{\numberline{(a)}{\ignorespaces {\(2 \times 2 \) Pattern}}}{8}}
\@writefile{lof}{\contentsline {subfigure}{\numberline{(b)}{\ignorespaces {\(3 \times 3 \) Pattern}}}{8}}
\@writefile{toc}{\contentsline {section}{\numberline {2.3}Filters}{8}}
\citation{ekf}
\citation{particle}
\@writefile{toc}{\contentsline {section}{\numberline {2.4}Power Estimation and Reconfiguration Algorithm}{9}}
\@writefile{toc}{\contentsline {subsection}{\numberline {2.4.1}Power Estimation}{9}}
\@writefile{lof}{\contentsline {figure}{\numberline {2.5}{\ignorespaces NUI pattern estimation example\relax }}{11}}
\newlabel{fig:sys_shadow_est}{{2.5}{11}}
\@writefile{lof}{\contentsline {subfigure}{\numberline{(a)}{\ignorespaces {Example 1}}}{11}}
\@writefile{lof}{\contentsline {subfigure}{\numberline{(b)}{\ignorespaces {Example 2}}}{11}}
\@writefile{lof}{\contentsline {subfigure}{\numberline{(c)}{\ignorespaces {Example 3}}}{11}}
\@writefile{toc}{\contentsline {subsection}{\numberline {2.4.2}Reconfiguration Algorithm}{11}}
\@writefile{lof}{\contentsline {figure}{\numberline {2.6}{\ignorespaces Array Reconfiguration Algorithm\relax }}{12}}
\newlabel{fig:algo_reconfig}{{2.6}{12}}
\@setckpt{chap_system}{
\setcounter{page}{13}
\setcounter{equation}{0}
\setcounter{enumi}{0}
\setcounter{enumii}{0}
\setcounter{enumiii}{0}
\setcounter{enumiv}{0}
\setcounter{footnote}{0}
\setcounter{mpfootnote}{0}
\setcounter{part}{0}
\setcounter{chapter}{2}
\setcounter{section}{4}
\setcounter{subsection}{2}
\setcounter{subsubsection}{0}
\setcounter{paragraph}{0}
\setcounter{subparagraph}{0}
\setcounter{figure}{6}
\setcounter{table}{0}
\setcounter{@course}{0}
\setcounter{@credits}{0}
\setcounter{ContinuedFloat}{0}
\setcounter{KVtest}{0}
\setcounter{subfigure}{0}
\setcounter{subfigure@save}{3}
\setcounter{lofdepth}{1}
\setcounter{subtable}{0}
\setcounter{subtable@save}{0}
\setcounter{lotdepth}{1}
\setcounter{parentequation}{0}
\setcounter{float@type}{4}
\setcounter{@todonotes@numberoftodonotes}{0}
}
