This is BibTeX, Version 0.99dThe top-level auxiliary file: report_main.aux
A level-1 auxiliary file: declaration.aux
A level-1 auxiliary file: abstract.aux
A level-1 auxiliary file: chap_intro.aux
A level-1 auxiliary file: chap_thermal.aux
A level-1 auxiliary file: chap_architecture.aux
A level-1 auxiliary file: chap_results.aux
A level-1 auxiliary file: chap_conclusion.aux
A level-1 auxiliary file: acknowledgement.aux
The style file: ieeetr.bst
Database file #1: references.bib
