\relax 
\@input{declaration.aux}
\@input{abstract.aux}
\citation{arm_ref}
\citation{arm_ref}
\citation{arm_ref}
\citation{arm_ref}
\citation{arm_ref}
\citation{arm_ref}
\citation{arm_ref}
\citation{arm_ref}
\citation{arm_ref}
\@writefile{toc}{\contentsline {chapter}{List of Figures}{vi}}
\@writefile{toc}{\contentsline {chapter}{List of Tables}{viii}}
\@input{chap_intro.aux}
\@input{chap_thermal.aux}
\@input{chap_architecture.aux}
\@input{chap_results.aux}
\@input{chap_conclusion.aux}
\@input{acknowledgement.aux}
\bibdata{references}
\bibcite{koren}{1}
\bibcite{chengmo}{2}
\bibcite{bhandarkar}{3}
\bibcite{tiantian}{4}
\bibcite{arm_ref}{5}
\bibcite{bench_mark}{6}
\bibcite{register}{7}
\bibstyle{ieeetr}
